…
## Principal Component Analysis

``` r
pca <- basic %>% 
  step_pca(all_predictors(),threshold =.9)
summary(pca)
```

    ## # A tibble: 59 x 4
    ##    variable                type    role      source  
    ##    <chr>                   <chr>   <chr>     <chr>   
    ##  1 AngleCh1                numeric predictor original
    ##  2 AreaCh1                 numeric predictor original
    ##  3 AvgIntenCh1             numeric predictor original
    ##  4 AvgIntenCh2             numeric predictor original
    ##  5 AvgIntenCh3             numeric predictor original
    ##  6 AvgIntenCh4             numeric predictor original
    ##  7 ConvexHullAreaRatioCh1  numeric predictor original
    ##  8 ConvexHullPerimRatioCh1 numeric predictor original
    ##  9 DiffIntenDensityCh1     numeric predictor original
    ## 10 DiffIntenDensityCh3     numeric predictor original
    ## # ... with 49 more rows
…
</p>

## Distance to Each Class Centroid

``` r
dist_to_classes <- basic %>%
step_classdist(all_predictors(), class = "Class") %>% # Take log of the
  step_log(starts_with("classdist")) 

dist_to_classes<- prep(dist_to_classes, verbose = FALSE) # All variables are retained
dist_to_classes <-bake(dist_to_classes, new_data = seg_test, matches("[Cc]lass"))
dist_to_classes
```

    ## # A tibble: 1,010 x 3
    ##    Class classdist_PS classdist_WS
    ##    <fct>        <dbl>        <dbl>
    ##  1 PS            1.53         1.74
    ##  2 PS            1.35         1.46
    ##  3 WS            1.71         1.53
    ##  4 WS            1.75         1.61
    ##  5 PS            1.47         1.65
    ##  6 WS            1.48         1.47
    ##  7 WS            1.49         1.55
    ##  8 WS            1.55         1.40
    ##  9 PS            1.54         1.71
    ## 10 PS            1.55         1.57
    ## # ... with 1,000 more rows
…
