…
## Principal Component Analysis

``` r
pca <- basic %>% step_pca(all_predictors(), threshold = .9)
summary(pca)
```

    ## # A tibble: 59 x 4
    ##    variable                type    role      source  
    ##    <chr>                   <chr>   <chr>     <chr>   
    ##  1 AngleCh1                numeric predictor original
    ##  2 AreaCh1                 numeric predictor original
    ##  3 AvgIntenCh1             numeric predictor original
    ##  4 AvgIntenCh2             numeric predictor original
    ##  5 AvgIntenCh3             numeric predictor original
    ##  6 AvgIntenCh4             numeric predictor original
    ##  7 ConvexHullAreaRatioCh1  numeric predictor original
    ##  8 ConvexHullPerimRatioCh1 numeric predictor original
    ##  9 DiffIntenDensityCh1     numeric predictor original
    ## 10 DiffIntenDensityCh3     numeric predictor original
    ## # ... with 49 more rows
…
``` r
pca <- bake(pca, new_data = seg_test, everything())
pca
```

    ## # A tibble: 1,010 x 16
    ##    Class  PC01   PC02   PC03   PC04  PC05   PC06   PC07    PC08    PC09    PC10
    ##    <fct> <dbl>  <dbl>  <dbl>  <dbl> <dbl>  <dbl>  <dbl>   <dbl>   <dbl>   <dbl>
    ##  1 PS     4.86 -5.85  -0.891 -4.13  1.84  -2.29  -3.88  -1.27   -1.15    0.679 
    ##  2 PS     3.28 -1.51   0.353 -2.24  0.441 -0.911  0.800  0.0709 -1.33    0.279 
    ##  3 WS    -7.03 -1.77  -2.42  -0.652 3.22  -0.212  0.118  0.487   1.33    0.0787
    ##  4 WS    -6.96 -2.08  -2.89  -1.79  3.20  -0.845 -0.204  1.02    0.842   0.447 
    ##  5 PS     6.52 -3.77  -0.924 -2.61  2.49  -1.50  -1.63   1.64   -1.71    1.56  
    ##  6 WS     2.87  1.66   1.75  -5.41  0.324  1.40  -0.198  1.73   -0.353  -1.12  
    ##  7 WS     2.72  0.433 -1.05  -5.45  1.18  -0.136  0.441  2.15   -1.79   -1.87  
    ##  8 WS    -3.01  1.94   2.68  -0.409 3.55  -1.60  -0.189 -2.49   -0.472   1.12  
    ##  9 PS     6.91 -3.83  -1.57  -2.71  1.21  -1.16  -0.766  2.59   -0.0243  1.35  
    ## 10 PS    -2.28 -3.53  -1.78  -3.30  2.62  -0.890  0.829  2.18   -1.41   -2.25  
    ## # ... with 1,000 more rows, and 5 more variables: PC11 <dbl>, PC12 <dbl>,
    ## #   PC13 <dbl>, PC14 <dbl>, PC15 <dbl>
…
## Distance to Each Class Centroid

``` r
dist_to_classes <- basic %>% 
  step_classdist(all_predictors(), class = "Class") %>%
  # Take log of the new distance features
  step_log(starts_with("classdist"))
dist_to_classes <- prep(dist_to_classes, verbose = FALSE)
# All variables are retained plus an additional one for each class
dist_to_classes <- bake(dist_to_classes, new_data = seg_test, matches("[Cc]lass"))
dist_to_classes
```

    ## # A tibble: 1,010 x 3
    ##    Class classdist_PS classdist_WS
    ##    <fct>        <dbl>        <dbl>
    ##  1 PS            1.53         1.74
    ##  2 PS            1.35         1.46
    ##  3 WS            1.71         1.53
    ##  4 WS            1.75         1.61
    ##  5 PS            1.47         1.65
    ##  6 WS            1.48         1.47
    ##  7 WS            1.49         1.55
    ##  8 WS            1.55         1.40
    ##  9 PS            1.54         1.71
    ## 10 PS            1.55         1.57
    ## # ... with 1,000 more rows
…
